{
  "project_info": {
    "project_number": "92929452803",
    "firebase_url": "https://chat-cripto.firebaseio.com",
    "project_id": "chat-cripto",
    "storage_bucket": "chat-cripto.appspot.com"
  },
  "client": [
    {
      "client_info": {
        "mobilesdk_app_id": "1:92929452803:android:db484230da178027",
        "android_client_info": {
          "package_name": "com.apps.chatcripto"
        }
      },
      "oauth_client": [
        {
          "client_id": "92929452803-51f54mg5qkphd262ihqpecqdpt62svuo.apps.googleusercontent.com",
          "client_type": 3
        }
      ],
      "api_key": [
        {
          "current_key": "AIzaSyBOKU_7e1nDKaZ3yjBW1p-nM4z9LcXK4iE"
        }
      ],
      "services": {
        "appinvite_service": {
          "other_platform_oauth_client": [
            {
              "client_id": "92929452803-51f54mg5qkphd262ihqpecqdpt62svuo.apps.googleusercontent.com",
              "client_type": 3
            }
          ]
        }
      }
    }
  ],
  "configuration_version": "1"
}